<svg width="17px" height="17px" viewBox="403 261 17 17" version="1.1" xmlns="http://www.w3.org/2000/svg" xmlns:xlink="http://www.w3.org/1999/xlink">
    <path d="M411.673438,277.465625 C416.058924,277.465625 419.614063,273.910486 419.614063,269.525 C419.614063,265.139514 416.058924,261.584375 411.673438,261.584375 C407.287951,261.584375 403.732813,265.139514 403.732813,269.525 C403.732813,273.910486 407.287951,277.465625 411.673438,277.465625 Z" id="Oval" stroke="none" fill="#FFFFFF" fill-rule="evenodd"></path>
    <path d="M406.941597,268.413313 C407.646327,268.413313 408.083062,268.294203 408.410613,267.946801 L408.410613,272.999023 L410.018589,272.999023 L410.018589,266.050977 L408.490019,266.050977 C408.241874,266.616746 407.745585,266.924445 406.941597,266.924445 L406.941597,268.413313 Z M411.16226,269.882328 L412.383131,270.180102 C412.710682,269.693738 413.167268,269.465445 413.713186,269.465445 C414.398064,269.465445 414.85465,269.882328 414.85465,270.616836 C414.85465,271.391047 414.40799,271.80793 413.713186,271.80793 C413.13749,271.80793 412.670979,271.609414 412.670979,271.043645 C412.670979,270.954313 412.680904,270.884832 412.700756,270.815352 L411.192037,270.458023 C411.132482,270.587059 411.092779,270.815352 411.092779,271.003941 C411.092779,272.13548 411.966248,273.137984 413.683408,273.137984 C415.331088,273.137984 416.393146,272.075926 416.393146,270.616836 C416.393146,269.197449 415.519678,268.2545 413.981182,268.2545 C413.375709,268.2545 412.919123,268.413313 412.472463,268.730937 L412.62135,267.440586 L415.986189,267.440586 L415.986189,266.050977 L411.489811,266.050977 L411.16226,269.882328 Z" id="15" stroke="none" fill="#F9423A" fill-rule="evenodd"></path>
</svg>