<svg width="17px" height="17px" viewBox="421 261 17 17" version="1.1" xmlns="http://www.w3.org/2000/svg" xmlns:xlink="http://www.w3.org/1999/xlink">
    <path d="M429.539844,277.465625 C433.92533,277.465625 437.480469,273.910486 437.480469,269.525 C437.480469,265.139514 433.92533,261.584375 429.539844,261.584375 C425.154358,261.584375 421.599219,265.139514 421.599219,269.525 C421.599219,273.910486 425.154358,277.465625 429.539844,277.465625 Z" id="Oval" stroke="none" fill="#FFFFFF" fill-rule="evenodd"></path>
    <path d="M424.778226,268.413313 C425.482956,268.413313 425.919691,268.294203 426.247242,267.946801 L426.247242,272.999023 L427.855218,272.999023 L427.855218,266.050977 L426.326648,266.050977 C426.078503,266.616746 425.582214,266.924445 424.778226,266.924445 L424.778226,268.413313 Z M433.922076,268.274352 C434.001482,268.075836 434.041186,267.897172 434.041186,267.708582 C434.041186,266.636598 433.247123,265.912016 431.797959,265.912016 C430.676346,265.912016 429.763174,266.547266 429.296662,267.649027 C429.048518,268.2545 428.889705,268.95923 428.889705,269.931957 C428.889705,271.966742 430.041096,273.137984 431.67885,273.137984 C433.197494,273.137984 434.319107,272.115629 434.319107,270.765723 C434.319107,269.415816 433.336455,268.453016 431.887291,268.453016 C431.311596,268.453016 430.765678,268.661457 430.388498,268.998934 C430.487756,267.797914 431.053525,267.122961 431.817811,267.122961 C432.333951,267.122961 432.552318,267.36118 432.552318,267.61925 C432.552318,267.738359 432.532467,267.827691 432.482838,267.936875 L433.922076,268.274352 Z M431.658998,269.663961 C432.304174,269.663961 432.83024,270.070918 432.83024,270.7955 C432.83024,271.510156 432.304174,271.927039 431.658998,271.927039 C431.013822,271.927039 430.497682,271.510156 430.497682,270.7955 C430.497682,270.070918 431.013822,269.663961 431.658998,269.663961 L431.658998,269.663961 Z" id="16" stroke="none" fill="#F9423A" fill-rule="evenodd"></path>
</svg>