<svg width="17px" height="17px" viewBox="403 224 17 17" version="1.1" xmlns="http://www.w3.org/2000/svg" xmlns:xlink="http://www.w3.org/1999/xlink">
    <path d="M411.673438,240.243945 C416.058924,240.243945 419.614063,236.688806 419.614063,232.30332 C419.614063,227.917834 416.058924,224.362695 411.673438,224.362695 C407.287951,224.362695 403.732813,227.917834 403.732813,232.30332 C403.732813,236.688806 407.287951,240.243945 411.673438,240.243945 Z" id="Oval" stroke="none" fill="#FFFFFF" fill-rule="evenodd"></path>
    <polygon id="7" stroke="none" fill="#F9423A" fill-rule="evenodd" points="414.099188 230.159352 414.099188 228.829297 409.215704 228.829297 409.215704 230.218906 412.481286 230.218906 409.979989 235.777344 411.597891 235.777344"></polygon>
</svg>