<svg width="16px" height="17px" viewBox="368 280 16 17" version="1.1" xmlns="http://www.w3.org/2000/svg" xmlns:xlink="http://www.w3.org/1999/xlink">
    <path d="M375.940625,296.324609 C380.326111,296.324609 383.88125,292.76947 383.88125,288.383984 C383.88125,283.998498 380.326111,280.443359 375.940625,280.443359 C371.555139,280.443359 368,283.998498 368,288.383984 C368,292.76947 371.555139,296.324609 375.940625,296.324609 Z" id="Oval" stroke="none" fill="#FFFFFF" fill-rule="evenodd"></path>
    <path d="M371.511521,287.272297 C372.216251,287.272297 372.652986,287.153188 372.980536,286.805785 L372.980536,291.858008 L374.588513,291.858008 L374.588513,284.909961 L373.059943,284.909961 C372.811798,285.47573 372.315509,285.78343 371.511521,285.78343 L371.511521,287.272297 Z M380.427078,286.240016 L380.427078,284.909961 L375.543594,284.909961 L375.543594,286.29957 L378.809176,286.29957 L376.307879,291.858008 L377.925781,291.858008 L380.427078,286.240016 Z" id="17" stroke="none" fill="#F9423A" fill-rule="evenodd"></path>
</svg>